// Jest Snapshot v1, https://goo.gl/fbAQLP

exports[`renders BoothHeader correctly 1`] = `
<View
  style={
    Object {
      "flex": 1,
      "flexDirection": "row",
    }
  }
>
  <View
    style={
      Object {
        "backgroundColor": "rgba(247,247,247,1.0)",
        "width": "70%",
      }
    }
  >
    <Text
      style={
        Object {
          "fontSize": 14,
          "fontWeight": "bold",
          "paddingBottom": 2,
          "paddingLeft": 10,
          "paddingRight": 10,
          "paddingTop": 2,
        }
      }
    >
      test
    </Text>
  </View>
  <Text
    style={
      Object {
        "backgroundColor": "rgba(187,187,187,1.0)",
        "color": "rgba(76,76,76,1)",
        "fontSize": 12,
        "paddingBottom": 2,
        "paddingLeft": 10,
        "paddingRight": 10,
        "paddingTop": 2,
        "width": "100%",
      }
    }
  >
    Belgie
  </Text>
</View>
`;

exports[`renders BoothItem correctly 1`] = `
<View
  style={
    Object {
      "backgroundColor": "rgba(218,119,19,1.0)",
      "flex": 1,
      "flexDirection": "row",
      "height": 54,
      "padding": 10,
    }
  }
>
  <View
    style={
      Object {
        "width": "5%",
      }
    }
  />
  <View
    style={
      Object {
        "width": "80%",
      }
    }
  >
    <Text
      style={
        Object {
          "fontSize": 18,
        }
      }
    >
      Test Beer Name
    </Text>
    <Text
      style={
        Object {
          "color": "rgba(66,66,66,1)",
          "fontSize": 12,
          "paddingLeft": 10,
        }
      }
    >
      Sour
    </Text>
  </View>
  <Text
    style={
      Object {
        "color": "rgba(20,20,20,1)",
        "fontSize": 20,
        "paddingRight": 10,
        "textAlign": "right",
      }
    }
  >
    9,5%
  </Text>
</View>
`;
