// Jest Snapshot v1, https://goo.gl/fbAQLP

exports[`renders FestListItem correctly 1`] = `
<View
  style={
    Object {
      "backgroundColor": "#EDA92C",
      "flex": 1,
    }
  }
>
  <View
    style={
      Object {
        "alignItems": "center",
      }
    }
  >
    <Image
      source={1}
      style={
        Object {
          "height": 200,
          "width": "100%",
        }
      }
    />
  </View>
</View>
`;
